{
  "monitor_DOM" : { "message" : "Monitor DOM" },
  "monitor_DOM_Desc" : { "message" : "Mark Links on the fly (Can significantly reduce performance)" },
  "Black_List" : { "message" : "Black List" },
  "Sources" : { "message" : "Sources" },
  "Save" : { "message" : "Save" },
  "Reset" : { "message" : "Reset (will resync with remote URL)" },
  "Edit" : { "message" : "Edit" },
  "Banner_Text" : { "message" : "This site is marked as a Trash Information Source according to 'http://boloto.in.ua' and/or 'www.stopfake.online' please be aware of using information from this resource" },
  "Banner_Header" : { "message" : "This is a Trash Site" },
  "Add_Link_Label" : { "message" : "Add site to Black List (manually added site will be blacklisted for you only, it will not be sent to remote list source for moderation)" },
  "Add_Link_Error" : { "message" : "Please enter a correct domain name without any 'http://' or path like '/some/path/at/site'" }
}
